"","Austria","China","USA","OECD","G20","G7","EU20","Denmark","India","Germany","Russia"
"1947-Q2",NA,NA,-0.266691,NA,NA,NA,NA,NA,NA,NA,NA
"1947-Q3",NA,NA,-0.206496,NA,NA,NA,NA,NA,NA,NA,NA
"1947-Q4",NA,NA,1.564208,NA,NA,NA,NA,NA,NA,NA,NA
"1948-Q1",NA,NA,1.504256,NA,NA,NA,NA,NA,NA,NA,NA
"1948-Q2",NA,NA,1.650658,NA,NA,NA,NA,NA,NA,NA,NA
"1948-Q3",NA,NA,0.572897,NA,NA,NA,NA,NA,NA,NA,NA
"1948-Q4",NA,NA,0.111742,NA,NA,NA,NA,NA,NA,NA,NA
"1949-Q1",NA,NA,-1.377951,NA,NA,NA,NA,NA,NA,NA,NA
"1949-Q2",NA,NA,-0.341097,NA,NA,NA,NA,NA,NA,NA,NA
"1949-Q3",NA,NA,1.032415,NA,NA,NA,NA,NA,NA,NA,NA
"1949-Q4",NA,NA,-0.839275,NA,NA,NA,NA,NA,NA,NA,NA
"1950-Q1",NA,NA,3.930121,NA,NA,NA,NA,NA,NA,NA,NA
"1950-Q2",NA,NA,3.049835,NA,NA,NA,NA,NA,NA,NA,NA
"1950-Q3",NA,NA,3.864389,NA,NA,NA,NA,NA,NA,NA,NA
"1950-Q4",NA,NA,1.914763,NA,NA,NA,NA,NA,NA,NA,NA
"1951-Q1",NA,NA,1.358164,NA,NA,NA,NA,NA,NA,NA,NA
"1951-Q2",NA,NA,1.732736,NA,NA,NA,NA,NA,NA,NA,NA
"1951-Q3",NA,NA,2.060983,NA,NA,NA,NA,NA,NA,NA,NA
"1951-Q4",NA,NA,0.220241,NA,NA,NA,NA,NA,NA,NA,NA
"1952-Q1",NA,NA,1.068549,NA,NA,NA,NA,NA,NA,NA,NA
"1952-Q2",NA,NA,0.215386,NA,NA,NA,NA,NA,NA,NA,NA
"1952-Q3",NA,NA,0.721871,NA,NA,NA,NA,NA,NA,NA,NA
"1952-Q4",NA,NA,3.284198,NA,NA,NA,NA,NA,NA,NA,NA
"1953-Q1",NA,NA,1.858854,NA,NA,NA,NA,NA,NA,NA,NA
"1953-Q2",NA,NA,0.772984,NA,NA,NA,NA,NA,NA,NA,NA
"1953-Q3",NA,NA,-0.562694,NA,NA,NA,NA,NA,NA,NA,NA
"1953-Q4",NA,NA,-1.513976,NA,NA,NA,NA,NA,NA,NA,NA
"1954-Q1",NA,NA,-0.478013,NA,NA,NA,NA,NA,NA,NA,NA
"1954-Q2",NA,NA,0.108991,NA,NA,NA,NA,NA,NA,NA,NA
"1954-Q3",NA,NA,1.129364,NA,NA,NA,NA,NA,NA,NA,NA
"1954-Q4",NA,NA,1.956683,NA,NA,NA,NA,NA,NA,NA,NA
"1955-Q1",NA,NA,2.856249,NA,NA,NA,NA,NA,NA,NA,NA
"1955-Q2",NA,NA,1.627179,NA,NA,NA,NA,NA,NA,NA,NA
"1955-Q3",NA,NA,1.350478,NA,NA,NA,NA,NA,NA,NA,NA
"1955-Q4",NA,NA,0.600325,NA,NA,NA,NA,NA,NA,NA,NA
"1956-Q1",NA,NA,-0.388406,NA,NA,NA,NA,NA,NA,NA,NA
"1956-Q2",NA,NA,0.826333,NA,NA,NA,NA,NA,NA,NA,NA
"1956-Q3",NA,NA,-0.089833,NA,NA,NA,NA,NA,NA,NA,NA
"1956-Q4",NA,NA,1.645929,NA,NA,NA,NA,NA,NA,NA,NA
"1957-Q1",NA,NA,0.640392,NA,NA,NA,NA,NA,NA,NA,NA
"1957-Q2",NA,NA,-0.219102,NA,NA,NA,NA,NA,NA,NA,NA
"1957-Q3",NA,NA,0.979883,NA,NA,NA,NA,NA,NA,NA,NA
"1957-Q4",NA,NA,-1.034588,NA,NA,NA,NA,NA,NA,NA,NA
"1958-Q1",NA,NA,-2.595847,NA,NA,NA,NA,NA,NA,NA,NA
"1958-Q2",NA,NA,0.657371,NA,NA,NA,NA,NA,NA,NA,NA
"1958-Q3",NA,NA,2.313854,NA,NA,NA,NA,NA,NA,NA,NA
"1958-Q4",NA,NA,2.339305,NA,NA,NA,NA,NA,NA,NA,NA
"1959-Q1",NA,NA,1.921298,NA,NA,NA,NA,NA,NA,NA,NA
"1959-Q2",NA,NA,2.25642,NA,NA,NA,NA,NA,NA,NA,NA
"1959-Q3",NA,NA,0.071201,NA,NA,NA,NA,NA,NA,NA,NA
"1959-Q4",NA,NA,0.285039,NA,NA,NA,NA,NA,NA,NA,NA
"1960-Q1",2.76993,NA,2.247298,NA,NA,NA,NA,0.622803,NA,NA,NA
"1960-Q2",0.225758,NA,-0.539387,NA,NA,NA,NA,1.020444,NA,NA,NA
"1960-Q3",-0.200732,NA,0.489275,NA,NA,NA,NA,1.407604,NA,NA,NA
"1960-Q4",0.300937,NA,-1.283434,NA,NA,NA,NA,1.779961,NA,7.45029,NA
"1961-Q1",-1.099103,NA,0.675029,NA,NA,NA,NA,1.800291,NA,5.002099,NA
"1961-Q2",-0.713534,NA,1.697479,NA,NA,NA,NA,1.819056,NA,3.57695,NA
"1961-Q3",1.13957,NA,1.919639,NA,NA,NA,NA,1.836176,NA,2.996161,NA
"1961-Q4",2.806807,NA,1.961109,NA,NA,NA,NA,1.85187,NA,3.466854,NA
"1962-Q1",1.914571,NA,1.783599,1.08293,NA,NA,NA,1.123347,NA,5.112241,NA
"1962-Q2",0.812051,NA,0.903672,1.375021,NA,NA,NA,0.423811,NA,5.465212,NA
"1962-Q3",1.793428,NA,1.228508,0.692874,NA,NA,NA,-0.262186,NA,4.759933,NA
"1962-Q4",2.308012,NA,0.328861,0.34677,NA,NA,NA,-0.948882,NA,-0.372461,NA
"1963-Q1",-1.304525,NA,1.091605,2.388489,NA,NA,NA,0.138766,NA,3.021411,NA
"1963-Q2",4.104435,NA,1.122124,2.227676,NA,NA,NA,1.233792,NA,4.102017,NA
"1963-Q3",2.145185,NA,2.198426,1.300521,NA,NA,NA,2.3006,NA,4.832455,NA
"1963-Q4",-0.158879,NA,0.655596,1.804681,NA,NA,NA,3.306403,NA,10.127128,NA
"1964-Q1",2.467204,NA,2.108279,1.242327,NA,NA,NA,2.609488,NA,6.688293,NA
"1964-Q2",0.619894,NA,1.088705,1.199224,NA,NA,NA,1.967067,NA,4.182534,NA
"1964-Q3",2.841727,NA,1.562301,0.7995,NA,NA,NA,1.364174,NA,5.091161,NA
"1964-Q4",0.838672,NA,0.308893,1.629959,NA,NA,NA,0.788471,NA,5.36137,NA
"1965-Q1",1.568343,NA,2.419765,1.187298,NA,1.033303,NA,0.738906,NA,5.732237,NA
"1965-Q2",-0.290601,NA,1.263271,1.586153,NA,1.297035,NA,0.690386,NA,5.341683,NA
"1965-Q3",0.24205,NA,2.223268,1.694704,NA,0.588468,NA,0.642869,NA,4.549873,NA
"1965-Q4",-0.28828,NA,2.304043,1.636331,NA,0.164587,NA,0.596231,NA,4.73437,NA
"1966-Q1",1.370202,NA,2.434232,1.236676,NA,2.447486,NA,0.681159,NA,3.424304,NA
"1966-Q2",2.826463,NA,0.341617,1.035756,NA,2.259167,NA,0.764393,NA,2.86622,NA
"1966-Q3",0.6543,NA,0.846905,0.619552,NA,1.161977,NA,0.845813,NA,0.657536,NA
"1966-Q4",3.903812,NA,0.820372,1.088496,NA,1.920507,NA,0.925142,NA,-1.629791,NA
"1967-Q1",-0.141672,NA,0.885587,0.752286,NA,1.095633,NA,0.875757,NA,-2.237879,NA
"1967-Q2",1.879533,NA,0.061271,1.304654,NA,1.195918,NA,0.827583,NA,0,NA
"1967-Q3",0.867841,NA,0.946133,1.033584,NA,0.664074,NA,0.780553,NA,2.892641,NA
"1967-Q4",-0.890195,NA,0.75402,1.858719,NA,1.66237,NA,0.734582,NA,4.617509,NA
"1968-Q1",3.850183,NA,2.039493,1.138295,NA,1.331126,NA,1.082175,NA,5.761267,NA
"1968-Q2",1.320943,NA,1.670809,1.988253,NA,1.721453,NA,1.419761,NA,5.5347,NA
"1968-Q3",3.727945,NA,0.774972,1.573835,NA,1.715556,NA,1.744169,NA,5.767579,NA
"1968-Q4",-0.692246,NA,0.393303,1.292821,NA,1.918123,NA,2.05267,NA,7.174888,NA
"1969-Q1",1.981206,NA,1.565108,1.154444,NA,0.978217,NA,1.547739,NA,7.712806,NA
"1969-Q2",1.655392,NA,0.304007,1.263742,NA,1.009828,NA,1.067554,NA,7.663339,NA
"1969-Q3",2.303809,NA,0.660512,0.683379,NA,0.496638,NA,0.604505,NA,7.692304,NA
"1969-Q4",2.077436,NA,-0.487685,0.841527,NA,1.048102,NA,0.151851,NA,3.372586,NA
"1970-Q1",2.012365,NA,-0.148485,1.177816,NA,0.756388,NA,0.258884,NA,6.120868,NA
"1970-Q2",-0.208531,NA,0.14192,1.359262,NA,1.395818,NA,0.36522,NA,5.829537,NA
"1970-Q3",0.478572,NA,0.921575,0.022969,NA,1.037145,NA,0.470507,NA,5.111266,NA
"1970-Q4",1.208835,NA,-1.071644,0.893994,NA,1.9854,NA,0.574419,NA,4.763644,NA
"1971-Q1",0.432074,NA,2.715991,1.203791,NA,0.928505,NA,0.816535,NA,2.872244,NA
"1971-Q2",3.142126,NA,0.541112,1.34408,NA,2.154354,NA,1.053313,NA,2.733086,NA
"1971-Q3",-0.322352,NA,0.822985,0.528629,NA,1.424495,NA,1.283206,NA,1.783876,NA
"1971-Q4",-1.213618,NA,0.235779,1.531177,NA,1.322749,NA,1.504751,NA,3.882471,NA
"1972-Q1",2.240309,NA,1.838953,1.793369,NA,1.08744,NA,1.389444,NA,3.408694,NA
"1972-Q2",-0.50844,NA,2.26976,1.276691,NA,1.069466,NA,1.278678,NA,4.024254,NA
"1972-Q3",1.054791,NA,0.944391,1.737503,NA,0.485964,NA,1.171984,NA,5.729688,NA
"1972-Q4",2.581018,NA,1.674461,2.320111,NA,0.726589,NA,1.068889,NA,7.083374,NA
"1973-Q1",0.192757,NA,2.474813,1.081587,NA,1.09058,NA,0.68815,NA,6.141302,NA
"1973-Q2",1.004495,NA,1.088651,0.330416,NA,1.422621,NA,0.31652,NA,4.05874,NA
"1973-Q3",2.493848,NA,-0.525903,1.134693,NA,-0.193858,NA,-0.050231,NA,2.721524,NA
"1973-Q4",0.019735,NA,0.949225,-0.461769,NA,0.957876,NA,-0.416193,NA,2.177399,NA
"1974-Q1",-2.017511,NA,-0.859765,0.470802,NA,1.184957,NA,-0.49019,NA,1.349933,NA
"1974-Q2",1.200695,NA,0.237677,0.006252,NA,1.269258,NA,-0.565185,NA,1.018886,NA
"1974-Q3",0.094518,NA,-0.945134,-0.613406,NA,0.417128,NA,-0.641424,NA,-0.504301,NA
"1974-Q4",0.395938,NA,-0.388141,-0.542575,NA,1.474508,NA,-0.719045,NA,-1.907951,NA
"1975-Q1",3.157487,NA,-1.217301,0.498345,NA,1.85246,NA,0.092146,NA,-2.325179,NA
"1975-Q2",-1.094928,NA,0.714544,1.086615,NA,1.234357,NA,0.907691,NA,-1.262668,NA
"1975-Q3",-1.515421,NA,1.711658,1.356049,NA,1.707171,NA,1.707836,NA,1.965095,NA
"1975-Q4",4.422439,NA,1.346508,1.62884,NA,2.515862,NA,2.473897,NA,3.478331,NA
"1976-Q1",0.309025,NA,2.248761,0.990825,NA,1.082773,NA,1.810285,NA,5.545306,NA
"1976-Q2",0.810554,NA,0.733696,0.872315,NA,0.101271,NA,1.184948,NA,4.440716,NA
"1976-Q3",0.871688,NA,0.54872,0.948213,NA,0.972787,NA,0.584883,NA,4.324486,NA
"1976-Q4",-0.544241,NA,0.724846,0.907061,NA,-0.83306,NA,-1.198127,NA,4.278413,NA
"1977-Q1",1.418429,NA,1.181492,0.838619,NA,0.483647,NA,-0.06988,NA,3.334568,NA
"1977-Q2",-0.426456,NA,1.944109,0.872897,NA,-0.087687,NA,3.290039,NA,3.273852,NA
"1977-Q3",-0.313152,NA,1.804351,0.783275,NA,-0.848988,NA,-0.905907,NA,3.141081,NA
"1977-Q4",0.705266,NA,0.002187,0.816066,NA,-0.788395,NA,-1.907818,NA,2.689233,NA
"1978-Q1",0.820361,NA,0.319178,1.986316,NA,0.51223,NA,2.178223,NA,2.515067,NA
"1978-Q2",1.516657,NA,3.864251,0.883703,NA,1.251735,NA,1.622225,NA,3.889418,NA
"1978-Q3",0.829169,NA,1.005523,1.275473,NA,1.335452,NA,0.198664,NA,3.326126,NA
"1978-Q4",2.736722,NA,1.344146,0.537917,NA,1.690003,NA,0.922836,NA,3.029295,NA
"1979-Q1",-1.60161,NA,0.179784,1.232505,NA,0.919654,NA,1.737239,NA,5.809207,NA
"1979-Q2",0.929265,NA,0.106929,0.526294,NA,0.817797,NA,-0.667477,NA,4.439656,NA
"1979-Q3",1.929277,NA,0.742873,0.70321,NA,0.98921,NA,0.506338,NA,3.865567,NA
"1979-Q4",0.449504,NA,0.250074,0.573439,NA,1.105429,NA,1.530984,NA,4.568469,NA
"1980-Q1",0.25956,NA,0.314515,-1.062779,NA,0.979371,NA,-2.54894,NA,0.766209,NA
"1980-Q2",0.526264,NA,-2.060477,0.271347,NA,0.928318,NA,-1.327637,NA,0.366439,NA
"1980-Q3",1.722512,NA,-0.118849,1.210506,NA,0.709405,NA,0.63582,NA,-0.377487,NA
"1980-Q4",0.386675,NA,1.864925,1.019129,NA,0.825372,NA,0.156387,NA,0.0066,NA
"1981-Q1",1.551077,NA,1.959438,0.175496,NA,2.300734,NA,-0.734481,NA,0.40335,NA
"1981-Q2",2.009825,NA,-0.741078,0.611061,NA,0.973832,NA,0.612586,NA,1.06881,NA
"1981-Q3",-0.400431,NA,1.197524,-0.082807,NA,1.256915,NA,0.18666,NA,1.123387,NA
"1981-Q4",-0.810092,NA,-1.089546,-0.311263,NA,0.521123,NA,1.317726,NA,0.308727,NA
"1982-Q1",0.90491,NA,-1.553541,0.225262,NA,1.245013,NA,1.18282,NA,-0.059283,NA
"1982-Q2",-0.668593,NA,0.456197,-0.176542,NA,0.524588,NA,1.034116,NA,-1.307092,NA
"1982-Q3",-1.582642,NA,-0.382295,0.163988,NA,0.5707,NA,0.019956,NA,-0.992585,NA
"1982-Q4",-1.004716,NA,0.039942,0.743727,NA,0.324167,NA,0.513854,NA,-0.468227,NA
"1983-Q1",-0.188917,NA,1.317854,1.095484,NA,-1.200389,NA,1.641519,NA,1.202617,NA
"1983-Q2",2.792841,NA,2.275605,1.291513,NA,0.235227,NA,-1.290314,NA,1.999915,NA
"1983-Q3",1.665927,NA,1.999069,1.444834,NA,1.169219,NA,2.339343,NA,3.163684,NA
"1983-Q4",2.505866,NA,2.086219,1.406416,NA,1.159177,NA,1.298159,NA,3.589301,NA
"1984-Q1",1.12203,NA,1.95477,0.643168,NA,-0.038339,NA,1.267804,NA,0.895352,NA
"1984-Q2",0.850679,NA,1.727791,1.216524,NA,0.626212,NA,0.912187,NA,3.859432,NA
"1984-Q3",0.694278,NA,0.964064,0.647628,NA,-0.271759,NA,0.4651,NA,3.304748,NA
"1984-Q4",1.458103,NA,0.820863,0.942071,NA,-0.361652,NA,0.317686,NA,1.400568,NA
"1985-Q1",2.209569,NA,0.969087,1.050526,NA,0.301267,NA,1.610372,NA,4.055949,NA
"1985-Q2",1.349158,NA,0.880455,1.158424,NA,-0.230443,NA,2.179652,NA,2.616636,NA
"1985-Q3",-0.268271,NA,1.527124,0.790474,NA,0.315843,NA,1.901622,NA,2.370542,NA
"1985-Q4",0.688957,NA,0.743292,0.417925,NA,0.950938,NA,0.865082,NA,2.342773,NA
"1986-Q1",-0.188018,NA,0.933504,0.593273,NA,1.369293,NA,-0.296741,NA,2.49318,NA
"1986-Q2",0.270636,NA,0.450384,0.623966,NA,1.382795,NA,-0.039018,NA,1.922379,NA
"1986-Q3",1.651536,NA,0.957032,0.588487,NA,1.548265,NA,0.367633,NA,2.324731,NA
"1986-Q4",0.997748,NA,0.537076,0.277589,NA,1.362243,NA,-1.569174,NA,0.33052,NA
"1987-Q1",1.540323,NA,0.745171,1.575192,NA,0.885873,NA,3.024837,NA,1.415956,NA
"1987-Q2",1.805521,NA,1.078898,1.104931,NA,1.146963,NA,-1.381496,NA,1.369527,NA
"1987-Q3",2.003171,NA,0.867612,1.807934,NA,0.728536,NA,0.595972,NA,1.974542,NA
"1987-Q4",0.487663,NA,1.717053,0.714543,NA,0.954799,NA,0.980073,NA,3.651101,NA
"1988-Q1",0.052464,NA,0.516626,0.769711,NA,1.174902,NA,0.055031,NA,3.212996,NA
"1988-Q2",0.819327,NA,1.313867,1.022097,NA,1.217542,NA,-1.901254,NA,3.66499,NA
"1988-Q3",1.53757,NA,0.585929,1.126803,NA,0.788033,NA,2.460193,NA,3.234052,NA
"1988-Q4",1.083691,NA,1.332496,1.251298,NA,0.577229,NA,1.1303,NA,5.267745,NA
"1989-Q1",2.060746,NA,1.016602,0.37609,NA,0.503916,NA,-2.001584,NA,3.809604,NA
"1989-Q2",0.826998,NA,0.763269,0.964699,NA,0.756473,NA,-1.486353,NA,3.583956,NA
"1989-Q3",-0.259555,NA,0.740881,0.881323,NA,0.63906,NA,1.657639,NA,3.564769,NA
"1989-Q4",0.830578,NA,0.197047,0.966736,NA,0.250957,NA,-0.555739,NA,4.621031,NA
"1990-Q1",0.110171,NA,1.09279,0.889508,NA,1.455094,NA,2.248686,NA,4.713887,NA
"1990-Q2",-0.566555,NA,0.362908,0.310227,NA,1.131927,NA,0.288459,NA,5.951496,NA
"1990-Q3",0.576957,NA,0.066523,0.21029,NA,1.719317,NA,-1.073962,NA,6.581615,NA
"1990-Q4",-1.298602,NA,-0.910379,0.037551,NA,0.949523,NA,0.295591,NA,7.437528,NA
"1991-Q1",-0.154331,NA,-0.467844,0.587983,NA,0.940778,NA,1.078705,NA,6.467814,NA
"1991-Q2",0.438896,NA,0.779719,0.222079,NA,1.088104,NA,0.740824,NA,3.75794,NA
"1991-Q3",0.06022,NA,0.505297,0.592667,NA,1.166153,NA,-0.985146,NA,3.258061,NA
"1991-Q4",0.771067,NA,0.348499,0.856543,NA,1.26182,NA,1.441056,NA,1.960335,NA
"1992-Q1",0.685026,NA,1.197052,0.308503,NA,0.315533,NA,-0.798038,NA,1.715754,NA
"1992-Q2",1.018013,NA,1.084353,0.50921,NA,0.922323,NA,2.712643,NA,1.927481,NA
"1992-Q3",2.064691,NA,0.988272,0.251405,NA,0.918997,NA,-0.440451,NA,0.435866,NA
"1992-Q4",0.708564,15.3,1.043165,0.153743,NA,0.802432,NA,-1.201042,NA,-2.055362,NA
"1993-Q1",0.540013,13.5,0.1674,0.387333,NA,0.846748,NA,-0.413519,NA,-1.323359,NA
"1993-Q2",0.115095,12.9,0.58242,0.376806,NA,0.494707,NA,0.165747,NA,-0.330225,NA
"1993-Q3",1.839896,14.1,0.477315,0.835498,NA,-0.322185,NA,2.188264,NA,-0.193571,NA
"1993-Q4",1.686148,14.1,1.360113,0.87873,NA,0.34886,NA,1.222447,NA,1.950421,NA
"1994-Q1",1.245047,13.3,0.970216,0.564923,NA,0.510802,NA,2.928827,NA,2.213128,NA
"1994-Q2",0.76338,13.1,1.355046,0.878027,NA,0.125267,NA,-0.468872,NA,2.272361,NA
"1994-Q3",0.942634,12,0.584515,0.903892,NA,0.578579,NA,2.508937,NA,3.675428,NA
"1994-Q4",0.012736,11.9,1.145524,0.301504,NA,0.803956,NA,0.514191,NA,1.968693,NA
"1995-Q1",0.347925,11,0.354756,0.353932,NA,0.44885,0.608938,-0.286015,NA,2.516335,NA
"1995-Q2",2.243927,10.4,0.298341,0.843948,NA,0.469294,0.43613,0.416912,NA,2.069079,NA
"1995-Q3",0.101954,10.8,0.850678,0.526976,NA,0.324734,0.336642,0.731826,NA,0.715066,NA
"1995-Q4",1.660164,10.9,0.679021,0.688753,NA,0.18427,0.317491,0.014838,NA,0.13949,NA
"1996-Q1",0.725269,9.4,0.748947,1.108463,NA,0.220613,0.656065,2.708071,NA,0.703016,NA
"1996-Q2",0.799619,9.2,1.667847,0.709485,NA,0.264558,0.63157,0.283007,NA,0.988092,NA
"1996-Q3",0.879511,10.3,0.896991,0.922782,NA,0.847669,0.445115,0.033876,NA,1.587687,NA
"1996-Q4",0.618796,10.1,1.038382,0.617695,NA,0.974697,0.568765,1.255106,NA,2.024838,NA
"1997-Q1",2.960408,10,0.645564,1.249454,NA,0.847777,1.215542,1.717514,3.271867,1.972019,NA
"1997-Q2",0.124388,8.6,1.662001,0.897931,NA,0.7723,0.679983,-0.282196,3.995211,1.746393,NA
"1997-Q3",1.390757,8.6,1.250848,0.953349,NA,0.804563,1.098846,-0.01376,4.010855,1.902074,NA
"1997-Q4",0.74205,7.3,0.858817,0.589148,NA,0.488718,0.662496,1.507865,4.916954,3.334523,NA
"1998-Q1",0.954147,6.9,0.99948,0.50665,0.398243,0.487704,0.49063,-0.755396,5.85828,1.60327,NA
"1998-Q2",1.921272,7.8,0.925807,0.804695,0.691917,0.743607,0.618725,1.837523,6.508867,1.457047,NA
"1998-Q3",1.544091,9.1,1.252567,0.864036,0.787586,0.447055,0.42028,0.320681,6.204705,0.717675,NA
"1998-Q4",0.761074,8.9,1.61588,0.612122,0.879246,0.523333,0.785537,0.905985,6.198517,0.72347,NA
"1999-Q1",0.367177,7.9,0.946472,0.777659,0.936258,1.155618,0.578181,0.516308,7.531356,1.25547,NA
"1999-Q2",1.14157,7.6,0.769159,1.188445,1.187898,0.626943,1.218487,0.618128,6.929968,2.033547,NA
"1999-Q3",1.683825,6.7,1.309665,1.356131,1.401621,0.842381,1.328066,1.398747,7.28888,3.344442,NA
"1999-Q4",0.409276,8.7,1.699585,0.943421,1.289498,0.511353,1.015422,0.975222,7.790752,3.480199,NA
"2000-Q1",0.916382,9.1,0.36176,1.273053,1.20434,1.097069,0.910413,1.138441,5.219166,4.314079,NA
"2000-Q2",0.183726,8.8,1.831165,0.485244,0.765706,0.838673,0.487523,0.276214,5.304763,3.11057,NA
"2000-Q3",-0.386428,7.5,0.133555,0.601599,0.757382,0.793364,0.741675,0.977776,3.63806,1.9156,NA
"2000-Q4",1.017303,9.5,0.62289,0.206799,0.393733,0.482867,0.791508,-1.085721,2.055704,2.608477,NA
"2001-Q1",0.846869,8.6,-0.285178,0.202146,0.50911,0.491671,0.296367,0.488157,4.039507,1.665705,NA
"2001-Q2",1.181111,8,0.584556,-0.066262,0.220954,0.80096,0.262622,0.897802,3.946242,1.504276,NA
"2001-Q3",1.206659,7.5,-0.415038,0.176799,0.407239,1.031457,0.276132,-0.19724,6.288201,1.546763,NA
"2001-Q4",0.740225,8.9,0.272371,0.61623,0.751748,0.51935,0.196936,-0.033449,6.569868,-0.375825,NA
"2002-Q1",1.745898,8.8,0.874514,0.745913,1.011084,0.577768,0.563275,-0.009897,5.048166,-0.23597,NA
"2002-Q2",0.377828,9.6,0.605733,0.526963,0.829156,1.159924,0.486381,0.340052,4.380652,0.527166,NA
"2002-Q3",0.690531,9.1,0.444571,0.298848,0.591822,1.304815,0.309857,-0.33021,2.117815,0.193422,NA
"2002-Q4",0.009464,11.1,0.154823,0.250112,0.73538,0.852426,0.013083,0.536071,3.580587,-0.708672,NA
"2003-Q1",0.34371,9.1,0.554767,0.494682,0.786842,1.227191,0.252404,-0.930017,5.546134,-0.932703,NA
"2003-Q2",1.558742,10,0.86026,1.054365,1.38211,0.212154,0.649012,0.343277,7.685049,-0.906995,NA
"2003-Q3",1.827655,10,1.698209,1.053767,1.405153,0.654376,0.786016,1.863055,11.13362,-0.329782,NA
"2003-Q4",0.872511,10.6,1.148167,0.802184,1.061318,0.293731,0.663206,0.481664,9.083127,0.854853,NA
"2004-Q1",0.780372,11.6,0.533747,0.657786,1.107174,0.277577,0.538839,0.595451,8.918198,1.191092,6.664651
"2004-Q2",0.698402,9.8,0.762076,0.60145,1.029484,-0.343266,0.315903,0.235625,8.669361,0.504893,7.520947
"2004-Q3",0.726009,8.8,0.945328,0.635573,0.991792,0.155105,0.421665,1.080781,7.252543,0.234028,7.337355
"2004-Q4",0.687296,11.1,1.001674,0.769562,1.192773,0.52448,0.318046,-0.362962,8.734178,0.075342,6.593498
"2005-Q1",0.435725,11.1,1.106964,0.677993,1.161378,0.576067,0.816579,1.968861,9.57187,0.386098,6.45687
"2005-Q2",1.027586,10.8,0.461561,0.932003,1.171011,0.449876,0.837711,0.111446,8.49515,1.37546,6.033988
"2005-Q3",0.921294,12.4,0.891334,0.783325,1.28996,0.209495,0.808986,0.324634,9.124488,1.674718,6.292684
"2005-Q4",0.272027,12.5,0.631463,1.044977,1.443372,0.210711,0.863707,1.256683,9.933773,2.817811,7.285695
"2006-Q1",0.247154,13.7,1.330287,0.642514,1.088978,0.536874,0.993931,2.982414,8.089747,3.771369,7.478152
"2006-Q2",1.430204,12.2,0.2337,0.345699,1.067621,1.077075,0.584185,-0.666929,10.127616,3.985578,7.904592
"2006-Q3",1.22015,12.5,0.154633,0.949721,1.389231,0.963639,0.895944,-0.270915,9.250466,4.930842,8.470744
"2006-Q4",1.471405,13.8,0.851865,0.741074,1.432861,0.543728,0.878472,0.331255,9.557228,4.382847,8.296872
"2007-Q1",0.623088,15,0.235493,0.57947,1.27041,0.541598,0.662248,-0.447908,10.727761,3.490171,8.172613
"2007-Q2",1.09339,14.3,0.572872,0.455668,1.05424,0.635807,0.610835,0.939559,9.110818,3.33334,8.808005
"2007-Q3",0.507568,13.9,0.543271,0.749396,1.418726,0.57266,0.656242,1.006095,10.897586,2.29423,8.711192
"2007-Q4",1.145344,11.5,0.607842,0.171301,0.801272,0.681577,0.52954,-0.041687,8.537631,2.765801,10.092327
"2008-Q1",0.247521,10.9,-0.5747,-0.057559,0.480777,0.590519,-0.3527,-0.922558,6.974691,1.730997,11.000111
"2008-Q2",0.752018,9.5,0.516387,-0.58006,-0.047974,0.885157,-0.708803,-0.5842,6.003421,0.522837,8.940648
"2008-Q3",-0.536627,7.1,-0.541356,-1.916564,-1.309508,0.598968,-1.804202,-2.361437,2.666428,-1.711595,5.001309
"2008-Q4",1.08355,6.4,-2.163811,-2.246518,-1.490033,0.911621,-2.649049,-1.423578,0.164173,-6.935629,-1.557639
"2009-Q1",0.616474,8.2,-1.122695,0.084937,0.964678,0.442136,-0.250229,-1.938253,4.882537,-6.603254,-7.484284
"2009-Q2",0.234779,10.6,-0.14399,0.543918,1.238919,0.191059,0.310014,0.34574,6.63315,-5.694315,-9.397149
"2009-Q3",0.710975,11.9,0.364111,0.947196,1.411071,0.929178,0.552028,0.090766,8.767615,-2.954888,-7.64864
"2009-Q4",0.516988,12.2,1.098384,0.608165,1.241965,0.433269,0.36837,0.863524,13.694705,2.331295,-3.511662
"2010-Q1",0.630292,10.8,0.38478,1.044948,1.413401,0.523148,0.949591,0.683473,10.039918,4.3609,2.154681
"2010-Q2",0.649933,9.9,0.922028,0.81531,1.272612,0.379612,0.546607,1.585352,10.471375,4.583906,4.651978
"2010-Q3",0.977899,9.9,0.737211,0.560622,1.233698,0.480419,0.576013,-0.225006,10.681644,4.491268,4.769843
"2010-Q4",-0.285726,10.2,0.501903,0.240178,0.864401,-0.017814,0.76039,0.217843,9.851588,5.570263,4.95151
"2011-Q1",1.175879,10,-0.240441,0.386057,0.916266,0.017838,0.112258,1.002436,8.574178,3.631894,3.387849
"2011-Q2",1.276186,9.4,0.714973,0.555752,0.842356,-0.690182,0.103029,-1.243856,5.452798,3.283491,3.927597
"2011-Q3",1.149917,8.8,-0.027779,0.473653,0.886366,-2.079351,-0.205978,0.81732,4.739234,2.457464,4.818865
"2011-Q4",1.035912,8.1,1.159285,0.450385,0.811716,-2.258086,-0.025834,-0.069587,4.276148,0.969916,4.85798
"2012-Q1",0.822686,7.7,0.782993,0.122384,0.601935,0.109669,-0.243591,0.075294,4.220271,0.900362,5.25251
"2012-Q2",0.506055,7.5,0.430202,0.149423,0.739056,0.326787,0.069864,0.093938,6.094211,0.693625,4.223971
"2012-Q3",0.510063,8.1,0.134948,0.070384,0.532305,0.992546,-0.374203,-0.16163,5.633631,0.202276,3.317403
"2012-Q4",0.293497,7.9,0.113873,0.578693,0.93434,0.523066,-0.082677,0.563792,5.862327,-0.360197,2.004557
"2013-Q1",0.556263,7.6,0.885675,0.467866,0.902357,1.028759,0.503109,0.074217,6.121977,0.446158,1.781696
"2013-Q2",0.735508,7.9,0.123396,0.711952,1.045221,0.866316,0.476993,0.633512,5.919566,0.722314,1.585994
"2013-Q3",0.801003,7.7,0.783415,0.522441,0.859187,0.375552,0.315922,0.201104,6.976134,1.581377,1.362987
"2013-Q4",0.699105,7.4,0.798249,0.392637,0.76305,0.034725,0.53389,0.253234,6.511506,2.894577,1.921117
"2014-Q1",0.662385,7.5,-0.251764,0.455294,0.771526,0.309287,0.351027,-0.072506,7.40255,1.893725,1.139153
"2014-Q2",0.416855,7.1,1.253873,0.793112,0.989753,0.450815,0.517964,1.673983,7.659476,1.674158,1.208899
"2014-Q3",0.420419,7.2,1.208911,0.592104,0.850262,0.557529,0.557842,0.358714,7.007916,2.2642,0.430487
"2014-Q4",0.945876,7,0.471851,0.803174,0.969266,0.582083,0.726955,0.684659,7.574086,1.117284,-0.450057
"2015-Q1",0.263988,7,0.822715,0.593668,0.859094,0.053593,0.466916,0.46771,7.637829,1.764788,-1.724434
"2015-Q2",0.932889,6.9,0.824614,0.457517,0.753415,0.115057,0.479341,0.301715,7.886426,1.74001,-2.718569
"2015-Q3",0.55151,6.8,0.240116,0.274381,0.649235,0.000787,0.559353,0.222866,8.170669,1.325665,-2.431402
"2015-Q4",0.972856,6.7,0.099909,0.537807,0.869701,0.586669,0.58956,0.561909,8.888996,2.381348,-2.621596
"2016-Q1",0.830397,6.7,0.384671,0.424002,0.762345,0.395167,0.324548,1.387282,3.271867,2.238553,-0.946248
"2016-Q2",-0.064161,6.7,0.565599,0.352315,0.730895,0.693606,0.378186,0.291141,3.995211,2.084433,-0.672542
"2016-Q3",0.978173,6.8,0.477906,0.753121,0.976484,0.531273,0.794898,0.782325,4.010855,1.927063,-0.208806
"2016-Q4",0.427126,6.8,0.437574,0.653099,0.927505,0.195817,0.696453,2.424837,4.916954,2.124588,0.976319
"2017-Q1",0.785952,6.8,0.443304,0.733413,1.011405,0.451094,0.623797,-1.184106,5.85828,2.232336,0.742668
"2017-Q2",0.59945,6.7,0.739668,0.710364,1.040032,0.79129,0.65424,-1.078446,6.508867,2.651287,1.792509
"2017-Q3",0.544586,6.7,0.698483,0.604948,0.919906,0.493135,0.636073,0.815703,6.204705,2.802347,1.926815
"2017-Q4",1.049337,6.8,0.567937,0.534834,0.867561,0.634025,0.395779,0.657595,6.198517,2.053795,1.400503
"2018-Q1",0.894889,6.7,0.549859,0.67195,0.95657,0.543463,0.465907,0.113086,7.531356,1.954434,1.718875
"2018-Q2",0.253011,6.5,1.023867,0.377908,0.8,0.243126,0.311437,0.712188,6.929968,1.163249,1.532758
"2018-Q3",NA,6.4,0.828654,NA,NA,NA,0.239505,0.799967,NA,0.642817,1.378224
